{"href": "https://api.spotify.com/v1/users/kingboomie/playlists?offset=0&limit=20", "items": [{"collaborative": false, "description": "", "external_urls": {"spotify": "https://open.spotify.com/playlist/4bPglZJ7t1J0MjtXX6LE1J"}, "href": "https://api.spotify.com/v1/playlists/4bPglZJ7t1J0MjtXX6LE1J", "id": "4bPglZJ7t1J0MjtXX6LE1J", "images": [{"height": 640, "url": "https://mosaic.scdn.co/640/ab67616d0000b2730376bdff8b70d934f297303eab67616d0000b273a90d170c61fb7d063d47161dab67616d0000b273c43edd2cf01edf73bf0b97a3ab67616d0000b273d9194aa18fa4c9362b47464f", "width": 640}, {"height": 300, "url": "https://mosaic.scdn.co/300/ab67616d0000b2730376bdff8b70d934f297303eab67616d0000b273a90d170c61fb7d063d47161dab67616d0000b273c43edd2cf01edf73bf0b97a3ab67616d0000b273d9194aa18fa4c9362b47464f", "width": 300}, {"height": 60, "url": "https://mosaic.scdn.co/60/ab67616d0000b2730376bdff8b70d934f297303eab67616d0000b273a90d170c61fb7d063d47161dab67616d0000b273c43edd2cf01edf73bf0b97a3ab67616d0000b273d9194aa18fa4c9362b47464f", "width": 60}], "name": "All Schlaps On Deck", "owner": {"display_name": "Joshua Reid", "external_urls": {"spotify": "https://open.spotify.com/user/kingboomie"}, "href": "https://api.spotify.com/v1/users/kingboomie", "id": "kingboomie", "type": "user", "uri": "spotify:user:kingboomie"}, "primary_color": null, "public": true, "snapshot_id": "MTE5MixkMTA5YWY3MjUyNDNmNjdjMGViYjcwNjJjYTg0NDllZmI2YzM2NjQ2", "tracks": {"href": "https://api.spotify.com/v1/playlists/4bPglZJ7t1J0MjtXX6LE1J/tracks", "total": 799}, "type": "playlist", "uri": "spotify:playlist:4bPglZJ7t1J0MjtXX6LE1J"}, {"collaborative": false, "description": "", "external_urls": {"spotify": "https://open.spotify.com/playlist/4BJ51GqQ21W060RArraTCC"}, "href": "https://api.spotify.com/v1/playlists/4BJ51GqQ21W060RArraTCC", "id": "4BJ51GqQ21W060RArraTCC", "images": [{"height": 640, "url": "https://mosaic.scdn.co/640/ab67616d0000b2731fffb4d9edbbc0426938bdcfab67616d0000b2738544567bdc5afbafaffc3449ab67616d0000b273b5d4730e54f84c66c70fe60aab67616d0000b273bfa99afb5ef0d26d5064b23b", "width": 640}, {"height": 300, "url": "https://mosaic.scdn.co/300/ab67616d0000b2731fffb4d9edbbc0426938bdcfab67616d0000b2738544567bdc5afbafaffc3449ab67616d0000b273b5d4730e54f84c66c70fe60aab67616d0000b273bfa99afb5ef0d26d5064b23b", "width": 300}, {"height": 60, "url": "https://mosaic.scdn.co/60/ab67616d0000b2731fffb4d9edbbc0426938bdcfab67616d0000b2738544567bdc5afbafaffc3449ab67616d0000b273b5d4730e54f84c66c70fe60aab67616d0000b273bfa99afb5ef0d26d5064b23b", "width": 60}], "name": "2020", "owner": {"display_name": "Joshua Reid", "external_urls": {"spotify": "https://open.spotify.com/user/kingboomie"}, "href": "https://api.spotify.com/v1/users/kingboomie", "id": "kingboomie", "type": "user", "uri": "spotify:user:kingboomie"}, "primary_color": null, "public": true, "snapshot_id": "MTc5LGNmNjg2YmY5YmQ3Yzg3ZjVlY2FkYzk2MGY3MzNlMThhODUyMDE1ZDY=", "tracks": {"href": "https://api.spotify.com/v1/playlists/4BJ51GqQ21W060RArraTCC/tracks", "total": 69}, "type": "playlist", "uri": "spotify:playlist:4BJ51GqQ21W060RArraTCC"}, {"collaborative": false, "description": "", "external_urls": {"spotify": "https://open.spotify.com/playlist/0TnNs1mbtM2KFCayKXKWgE"}, "href": "https://api.spotify.com/v1/playlists/0TnNs1mbtM2KFCayKXKWgE", "id": "0TnNs1mbtM2KFCayKXKWgE", "images": [{"height": null, "url": "https://i.scdn.co/image/ab67706c0000bebb93d3166eb8f42f4894d152f0", "width": null}], "name": "2019", "owner": {"display_name": "Joshua Reid", "external_urls": {"spotify": "https://open.spotify.com/user/kingboomie"}, "href": "https://api.spotify.com/v1/users/kingboomie", "id": "kingboomie", "type": "user", "uri": "spotify:user:kingboomie"}, "primary_color": null, "public": true, "snapshot_id": "MTc3LDFkZGEzMTgxMjhjYjhjNjg4NzQxOWMxMjBhNGFiZDlhNWNhY2Y3ZDQ=", "tracks": {"href": "https://api.spotify.com/v1/playlists/0TnNs1mbtM2KFCayKXKWgE/tracks", "total": 116}, "type": "playlist", "uri": "spotify:playlist:0TnNs1mbtM2KFCayKXKWgE"}, {"collaborative": false, "description": "", "external_urls": {"spotify": "https://open.spotify.com/playlist/6qdpflEbu6iQ0YeFq15BlG"}, "href": "https://api.spotify.com/v1/playlists/6qdpflEbu6iQ0YeFq15BlG", "id": "6qdpflEbu6iQ0YeFq15BlG", "images": [{"height": null, "url": "https://i.scdn.co/image/ab67706c0000bebb3c551baacac072f42a19d60a", "width": null}], "name": "2018", "owner": {"display_name": "Joshua Reid", "external_urls": {"spotify": "https://open.spotify.com/user/kingboomie"}, "href": "https://api.spotify.com/v1/users/kingboomie", "id": "kingboomie", "type": "user", "uri": "spotify:user:kingboomie"}, "primary_color": null, "public": true, "snapshot_id": "MjczLGRlZGQ1YzU4YWRlYWQyNjI0ZjQ0NzViMDZhNzk3YzhhMGJjNzZmOTU=", "tracks": {"href": "https://api.spotify.com/v1/playlists/6qdpflEbu6iQ0YeFq15BlG/tracks", "total": 114}, "type": "playlist", "uri": "spotify:playlist:6qdpflEbu6iQ0YeFq15BlG"}, {"collaborative": false, "description": "Bop to this while you skate or pretend that you do.", "external_urls": {"spotify": "https://open.spotify.com/playlist/7F6O3rAYYg9TRB648QyOhf"}, "href": "https://api.spotify.com/v1/playlists/7F6O3rAYYg9TRB648QyOhf", "id": "7F6O3rAYYg9TRB648QyOhf", "images": [{"height": null, "url": "https://i.scdn.co/image/ab67706c0000bebbea7261bd09649ae9db6797c8", "width": null}], "name": "SkaterFi", "owner": {"display_name": "Joshua Reid", "external_urls": {"spotify": "https://open.spotify.com/user/kingboomie"}, "href": "https://api.spotify.com/v1/users/kingboomie", "id": "kingboomie", "type": "user", "uri": "spotify:user:kingboomie"}, "primary_color": null, "public": true, "snapshot_id": "NDcsMzY4NTQ2NmZiOWRlZjYwYTZmZDRlNmNiZmFkODBhZmFhMGQ2ZGExYQ==", "tracks": {"href": "https://api.spotify.com/v1/playlists/7F6O3rAYYg9TRB648QyOhf/tracks", "total": 38}, "type": "playlist", "uri": "spotify:playlist:7F6O3rAYYg9TRB648QyOhf"}, {"collaborative": false, "description": "Why go outside when you can bop to this?", "external_urls": {"spotify": "https://open.spotify.com/playlist/4GvTzkj2DTLv2xUii4iIGX"}, "href": "https://api.spotify.com/v1/playlists/4GvTzkj2DTLv2xUii4iIGX", "id": "4GvTzkj2DTLv2xUii4iIGX", "images": [{"height": null, "url": "https://i.scdn.co/image/ab67706c0000bebbd4021a2ef79a068272fdbebf", "width": null}], "name": "BedroomFi", "owner": {"display_name": "Joshua Reid", "external_urls": {"spotify": "https://open.spotify.com/user/kingboomie"}, "href": "https://api.spotify.com/v1/users/kingboomie", "id": "kingboomie", "type": "user", "uri": "spotify:user:kingboomie"}, "primary_color": null, "public": true, "snapshot_id": "NjEsOTRkZjcyM2NkNTQ0M2MwNjAyMDNiOTIyMDI4ZTk4MDUyNTgxMWYzMg==", "tracks": {"href": "https://api.spotify.com/v1/playlists/4GvTzkj2DTLv2xUii4iIGX/tracks", "total": 52}, "type": "playlist", "uri": "spotify:playlist:4GvTzkj2DTLv2xUii4iIGX"}, {"collaborative": false, "description": "We all know this one bitch.", "external_urls": {"spotify": "https://open.spotify.com/playlist/1TsWcPsLgAfOnjfq8XZU0p"}, "href": "https://api.spotify.com/v1/playlists/1TsWcPsLgAfOnjfq8XZU0p", "id": "1TsWcPsLgAfOnjfq8XZU0p", "images": [{"height": null, "url": "https://i.scdn.co/image/ab67706c0000bebb915f7abceb60106796209ca1", "width": null}], "name": "Tapestry Gal", "owner": {"display_name": "Joshua Reid", "external_urls": {"spotify": "https://open.spotify.com/user/kingboomie"}, "href": "https://api.spotify.com/v1/users/kingboomie", "id": "kingboomie", "type": "user", "uri": "spotify:user:kingboomie"}, "primary_color": null, "public": true, "snapshot_id": "NDksZTg1NjRiMjVjOWM0ODg1YjQ2YzRlOGI2NjAwN2VkYzIxZmMwOGQxNw==", "tracks": {"href": "https://api.spotify.com/v1/playlists/1TsWcPsLgAfOnjfq8XZU0p/tracks", "total": 33}, "type": "playlist", "uri": "spotify:playlist:1TsWcPsLgAfOnjfq8XZU0p"}, {"collaborative": false, "description": "Windows down, morning dew, and some sunshine.", "external_urls": {"spotify": "https://open.spotify.com/playlist/0RVGK4WAmU1X9wzfu2QUxL"}, "href": "https://api.spotify.com/v1/playlists/0RVGK4WAmU1X9wzfu2QUxL", "id": "0RVGK4WAmU1X9wzfu2QUxL", "images": [{"height": null, "url": "https://i.scdn.co/image/ab67706c0000bebbee555bcd8f1be471c2871341", "width": null}], "name": "Shining Sun", "owner": {"display_name": "Joshua Reid", "external_urls": {"spotify": "https://open.spotify.com/user/kingboomie"}, "href": "https://api.spotify.com/v1/users/kingboomie", "id": "kingboomie", "type": "user", "uri": "spotify:user:kingboomie"}, "primary_color": null, "public": true, "snapshot_id": "MTcsMWEzNTZmM2NmNmM3OTg0YmYzODhhMTcwM2NhNmU1NjFjMjE5NGQwYw==", "tracks": {"href": "https://api.spotify.com/v1/playlists/0RVGK4WAmU1X9wzfu2QUxL/tracks", "total": 18}, "type": "playlist", "uri": "spotify:playlist:0RVGK4WAmU1X9wzfu2QUxL"}, {"collaborative": false, "description": "For that ride home from work.", "external_urls": {"spotify": "https://open.spotify.com/playlist/6g47ELckEVVZ5ImhXRkFmJ"}, "href": "https://api.spotify.com/v1/playlists/6g47ELckEVVZ5ImhXRkFmJ", "id": "6g47ELckEVVZ5ImhXRkFmJ", "images": [{"height": null, "url": "https://i.scdn.co/image/ab67706c0000bebbbfb2bcb722c14c832c410f1d", "width": null}], "name": "Long Day", "owner": {"display_name": "Joshua Reid", "external_urls": {"spotify": "https://open.spotify.com/user/kingboomie"}, "href": "https://api.spotify.com/v1/users/kingboomie", "id": "kingboomie", "type": "user", "uri": "spotify:user:kingboomie"}, "primary_color": null, "public": true, "snapshot_id": "MjcsOTU1M2YxMDhkYzk4NjQ5ZDRkYjM0ZTczMzY1MjVlNjljZWYxMmY4NA==", "tracks": {"href": "https://api.spotify.com/v1/playlists/6g47ELckEVVZ5ImhXRkFmJ/tracks", "total": 36}, "type": "playlist", "uri": "spotify:playlist:6g47ELckEVVZ5ImhXRkFmJ"}, {"collaborative": false, "description": "Its folk? right? who knows...", "external_urls": {"spotify": "https://open.spotify.com/playlist/00ITHVW82lp2Uqq1blSw44"}, "href": "https://api.spotify.com/v1/playlists/00ITHVW82lp2Uqq1blSw44", "id": "00ITHVW82lp2Uqq1blSw44", "images": [{"height": null, "url": "https://i.scdn.co/image/ab67706c0000bebb31bf94cd9fb6f4ba0d8ed24d", "width": null}], "name": "Folkish", "owner": {"display_name": "Joshua Reid", "external_urls": {"spotify": "https://open.spotify.com/user/kingboomie"}, "href": "https://api.spotify.com/v1/users/kingboomie", "id": "kingboomie", "type": "user", "uri": "spotify:user:kingboomie"}, "primary_color": null, "public": true, "snapshot_id": "MjEsOGI3MWFlYTc4YWQ2N2QyYTk1MTkxOWNjYzAzNzA1NGVlYTI3NjYzZg==", "tracks": {"href": "https://api.spotify.com/v1/playlists/00ITHVW82lp2Uqq1blSw44/tracks", "total": 16}, "type": "playlist", "uri": "spotify:playlist:00ITHVW82lp2Uqq1blSw44"}, {"collaborative": false, "description": "Remind yourself you are young.", "external_urls": {"spotify": "https://open.spotify.com/playlist/0JuShxFsBNA6RitvnXpYQp"}, "href": "https://api.spotify.com/v1/playlists/0JuShxFsBNA6RitvnXpYQp", "id": "0JuShxFsBNA6RitvnXpYQp", "images": [{"height": null, "url": "https://i.scdn.co/image/ab67706c0000bebb6c67f2892c1b585108d3c5ec", "width": null}], "name": "Young & Angsty", "owner": {"display_name": "Joshua Reid", "external_urls": {"spotify": "https://open.spotify.com/user/kingboomie"}, "href": "https://api.spotify.com/v1/users/kingboomie", "id": "kingboomie", "type": "user", "uri": "spotify:user:kingboomie"}, "primary_color": null, "public": true, "snapshot_id": "MjYsOTc2YjdhNjM1ZTkzMDdmNmQ0YTNjMjZlMzNmNDMxYmYwZWNkNTAwNw==", "tracks": {"href": "https://api.spotify.com/v1/playlists/0JuShxFsBNA6RitvnXpYQp/tracks", "total": 22}, "type": "playlist", "uri": "spotify:playlist:0JuShxFsBNA6RitvnXpYQp"}, {"collaborative": false, "description": "", "external_urls": {"spotify": "https://open.spotify.com/playlist/4WcBTuhjCCeVKvdjVPLUXr"}, "href": "https://api.spotify.com/v1/playlists/4WcBTuhjCCeVKvdjVPLUXr", "id": "4WcBTuhjCCeVKvdjVPLUXr", "images": [{"height": 640, "url": "https://mosaic.scdn.co/640/ab67616d0000b27304422c5d997bfa6c750a12f1ab67616d0000b273b7897784eee989d4f97f8579ab67616d0000b273c6084929566743530de8c721ab67616d0000b273e4a4c4e62815010f6cddd2ca", "width": 640}, {"height": 300, "url": "https://mosaic.scdn.co/300/ab67616d0000b27304422c5d997bfa6c750a12f1ab67616d0000b273b7897784eee989d4f97f8579ab67616d0000b273c6084929566743530de8c721ab67616d0000b273e4a4c4e62815010f6cddd2ca", "width": 300}, {"height": 60, "url": "https://mosaic.scdn.co/60/ab67616d0000b27304422c5d997bfa6c750a12f1ab67616d0000b273b7897784eee989d4f97f8579ab67616d0000b273c6084929566743530de8c721ab67616d0000b273e4a4c4e62815010f6cddd2ca", "width": 60}], "name": "Indistinguishable Noises", "owner": {"display_name": "Joshua Reid", "external_urls": {"spotify": "https://open.spotify.com/user/kingboomie"}, "href": "https://api.spotify.com/v1/users/kingboomie", "id": "kingboomie", "type": "user", "uri": "spotify:user:kingboomie"}, "primary_color": null, "public": true, "snapshot_id": "NDMsMWQ4NDk3Y2Q4ZWNmNjI5YzdjYjI5NzkwYmQ5MzIxYTNkOWMyMDEzYw==", "tracks": {"href": "https://api.spotify.com/v1/playlists/4WcBTuhjCCeVKvdjVPLUXr/tracks", "total": 34}, "type": "playlist", "uri": "spotify:playlist:4WcBTuhjCCeVKvdjVPLUXr"}, {"collaborative": false, "description": "", "external_urls": {"spotify": "https://open.spotify.com/playlist/4oQSpKJTekCDM5BGUWgE1l"}, "href": "https://api.spotify.com/v1/playlists/4oQSpKJTekCDM5BGUWgE1l", "id": "4oQSpKJTekCDM5BGUWgE1l", "images": [{"height": 640, "url": "https://mosaic.scdn.co/640/ab67616d0000b2732e94b668c60b06deb1c3a05cab67616d0000b2734d3fa5ce7ba599f4fd7803efab67616d0000b273667f26bb699ad24801321608ab67616d0000b2739bbd79106e510d13a9a5ec33", "width": 640}, {"height": 300, "url": "https://mosaic.scdn.co/300/ab67616d0000b2732e94b668c60b06deb1c3a05cab67616d0000b2734d3fa5ce7ba599f4fd7803efab67616d0000b273667f26bb699ad24801321608ab67616d0000b2739bbd79106e510d13a9a5ec33", "width": 300}, {"height": 60, "url": "https://mosaic.scdn.co/60/ab67616d0000b2732e94b668c60b06deb1c3a05cab67616d0000b2734d3fa5ce7ba599f4fd7803efab67616d0000b273667f26bb699ad24801321608ab67616d0000b2739bbd79106e510d13a9a5ec33", "width": 60}], "name": "Sophomore Year", "owner": {"display_name": "Joshua Reid", "external_urls": {"spotify": "https://open.spotify.com/user/kingboomie"}, "href": "https://api.spotify.com/v1/users/kingboomie", "id": "kingboomie", "type": "user", "uri": "spotify:user:kingboomie"}, "primary_color": null, "public": true, "snapshot_id": "OTEsNGI2MjlmZTAzMWVmZTk3MjI0YzExN2U1OTZkNTg5M2MxYWE0MDIxZg==", "tracks": {"href": "https://api.spotify.com/v1/playlists/4oQSpKJTekCDM5BGUWgE1l/tracks", "total": 30}, "type": "playlist", "uri": "spotify:playlist:4oQSpKJTekCDM5BGUWgE1l"}, {"collaborative": false, "description": "", "external_urls": {"spotify": "https://open.spotify.com/playlist/6wy02BglZXKiaroXsX8iWa"}, "href": "https://api.spotify.com/v1/playlists/6wy02BglZXKiaroXsX8iWa", "id": "6wy02BglZXKiaroXsX8iWa", "images": [{"height": 640, "url": "https://mosaic.scdn.co/640/ab67616d0000b2737005885df706891a3c182a57ab67616d0000b2738bd67126e96c5c7336e9cc89ab67616d0000b273b361ce46dbadbf8a11081b60ab67616d0000b273e62c8561e3b1bd9ad952ce01", "width": 640}, {"height": 300, "url": "https://mosaic.scdn.co/300/ab67616d0000b2737005885df706891a3c182a57ab67616d0000b2738bd67126e96c5c7336e9cc89ab67616d0000b273b361ce46dbadbf8a11081b60ab67616d0000b273e62c8561e3b1bd9ad952ce01", "width": 300}, {"height": 60, "url": "https://mosaic.scdn.co/60/ab67616d0000b2737005885df706891a3c182a57ab67616d0000b2738bd67126e96c5c7336e9cc89ab67616d0000b273b361ce46dbadbf8a11081b60ab67616d0000b273e62c8561e3b1bd9ad952ce01", "width": 60}], "name": "Freshman Year", "owner": {"display_name": "Joshua Reid", "external_urls": {"spotify": "https://open.spotify.com/user/kingboomie"}, "href": "https://api.spotify.com/v1/users/kingboomie", "id": "kingboomie", "type": "user", "uri": "spotify:user:kingboomie"}, "primary_color": null, "public": true, "snapshot_id": "MTAzLDY0OGFlMGEwNmIwNmIzMTdlZTY5MTliNmIwMmMyYzQ4ZGQ3NWVkMWQ=", "tracks": {"href": "https://api.spotify.com/v1/playlists/6wy02BglZXKiaroXsX8iWa/tracks", "total": 44}, "type": "playlist", "uri": "spotify:playlist:6wy02BglZXKiaroXsX8iWa"}, {"collaborative": false, "description": "", "external_urls": {"spotify": "https://open.spotify.com/playlist/2LcZqxQZhbiNJTXHn2SCqd"}, "href": "https://api.spotify.com/v1/playlists/2LcZqxQZhbiNJTXHn2SCqd", "id": "2LcZqxQZhbiNJTXHn2SCqd", "images": [{"height": null, "url": "https://i.scdn.co/image/ab67706c0000bebb144451acfd53d8a004c7e17e", "width": null}], "name": "Slow Jams On Hand", "owner": {"display_name": "Joshua Reid", "external_urls": {"spotify": "https://open.spotify.com/user/kingboomie"}, "href": "https://api.spotify.com/v1/users/kingboomie", "id": "kingboomie", "type": "user", "uri": "spotify:user:kingboomie"}, "primary_color": null, "public": true, "snapshot_id": "MjgyLGM5ODA5NzllNjQ0YmEwMmJmYzNkYWU4MzQ1MjhjMmY1ZThmNTAxYmI=", "tracks": {"href": "https://api.spotify.com/v1/playlists/2LcZqxQZhbiNJTXHn2SCqd/tracks", "total": 95}, "type": "playlist", "uri": "spotify:playlist:2LcZqxQZhbiNJTXHn2SCqd"}, {"collaborative": false, "description": "", "external_urls": {"spotify": "https://open.spotify.com/playlist/2pcM7ja3bnI2IQtyJ6p1rw"}, "href": "https://api.spotify.com/v1/playlists/2pcM7ja3bnI2IQtyJ6p1rw", "id": "2pcM7ja3bnI2IQtyJ6p1rw", "images": [{"height": null, "url": "https://i.scdn.co/image/ab67706c0000bebb542595c9f865aa83674939d5", "width": null}], "name": "GOAT", "owner": {"display_name": "Joshua Reid", "external_urls": {"spotify": "https://open.spotify.com/user/kingboomie"}, "href": "https://api.spotify.com/v1/users/kingboomie", "id": "kingboomie", "type": "user", "uri": "spotify:user:kingboomie"}, "primary_color": null, "public": true, "snapshot_id": "NTgsZDU1ZDZmYzhjMTg3YTk2NDc1MjYyYTg4ZWIzZWYxODUzNjA4NjIwNw==", "tracks": {"href": "https://api.spotify.com/v1/playlists/2pcM7ja3bnI2IQtyJ6p1rw/tracks", "total": 72}, "type": "playlist", "uri": "spotify:playlist:2pcM7ja3bnI2IQtyJ6p1rw"}, {"collaborative": false, "description": "", "external_urls": {"spotify": "https://open.spotify.com/playlist/6ZTi2YmJ4DTXP9fLRs75gK"}, "href": "https://api.spotify.com/v1/playlists/6ZTi2YmJ4DTXP9fLRs75gK", "id": "6ZTi2YmJ4DTXP9fLRs75gK", "images": [{"height": 640, "url": "https://mosaic.scdn.co/640/ab67616d0000b2730c653d22500b21d83c6e2b82ab67616d0000b273186999bb15b42bdaf6241d87ab67616d0000b2731960be23ca49f8e0639000caab67616d0000b273ec228d096edee10cb4f22e0b", "width": 640}, {"height": 300, "url": "https://mosaic.scdn.co/300/ab67616d0000b2730c653d22500b21d83c6e2b82ab67616d0000b273186999bb15b42bdaf6241d87ab67616d0000b2731960be23ca49f8e0639000caab67616d0000b273ec228d096edee10cb4f22e0b", "width": 300}, {"height": 60, "url": "https://mosaic.scdn.co/60/ab67616d0000b2730c653d22500b21d83c6e2b82ab67616d0000b273186999bb15b42bdaf6241d87ab67616d0000b2731960be23ca49f8e0639000caab67616d0000b273ec228d096edee10cb4f22e0b", "width": 60}], "name": "My Old School Shit", "owner": {"display_name": "Joshua Reid", "external_urls": {"spotify": "https://open.spotify.com/user/kingboomie"}, "href": "https://api.spotify.com/v1/users/kingboomie", "id": "kingboomie", "type": "user", "uri": "spotify:user:kingboomie"}, "primary_color": null, "public": true, "snapshot_id": "MTksYzMyMDBlNWRlOTJkYWJkZWFkMjRjNWY1MDllNzk5MmEzNmI2OGU4Yw==", "tracks": {"href": "https://api.spotify.com/v1/playlists/6ZTi2YmJ4DTXP9fLRs75gK/tracks", "total": 13}, "type": "playlist", "uri": "spotify:playlist:6ZTi2YmJ4DTXP9fLRs75gK"}, {"collaborative": false, "description": "", "external_urls": {"spotify": "https://open.spotify.com/playlist/34VCPN3JdyKGUYPAHhjzaH"}, "href": "https://api.spotify.com/v1/playlists/34VCPN3JdyKGUYPAHhjzaH", "id": "34VCPN3JdyKGUYPAHhjzaH", "images": [{"height": 640, "url": "https://mosaic.scdn.co/640/ab67616d0000b27333c6b920eabcf4c00d7a1093ab67616d0000b273602ca5b83fe44b68074a74b2ab67616d0000b27372616215eb4c30c5a9af9031ab67616d0000b273fce23dadb51975ebf2e9d75c", "width": 640}, {"height": 300, "url": "https://mosaic.scdn.co/300/ab67616d0000b27333c6b920eabcf4c00d7a1093ab67616d0000b273602ca5b83fe44b68074a74b2ab67616d0000b27372616215eb4c30c5a9af9031ab67616d0000b273fce23dadb51975ebf2e9d75c", "width": 300}, {"height": 60, "url": "https://mosaic.scdn.co/60/ab67616d0000b27333c6b920eabcf4c00d7a1093ab67616d0000b273602ca5b83fe44b68074a74b2ab67616d0000b27372616215eb4c30c5a9af9031ab67616d0000b273fce23dadb51975ebf2e9d75c", "width": 60}], "name": "Summer2k19", "owner": {"display_name": "Joshua Reid", "external_urls": {"spotify": "https://open.spotify.com/user/kingboomie"}, "href": "https://api.spotify.com/v1/users/kingboomie", "id": "kingboomie", "type": "user", "uri": "spotify:user:kingboomie"}, "primary_color": null, "public": true, "snapshot_id": "NTksZmJiNTZhZmVmYmEzZGQ4ODljYjc4ZjI5YWUzYzk1NjdkYTc0YzE1Mw==", "tracks": {"href": "https://api.spotify.com/v1/playlists/34VCPN3JdyKGUYPAHhjzaH/tracks", "total": 43}, "type": "playlist", "uri": "spotify:playlist:34VCPN3JdyKGUYPAHhjzaH"}, {"collaborative": false, "description": "", "external_urls": {"spotify": "https://open.spotify.com/playlist/522eoPWDEPbY9neoxWzqM1"}, "href": "https://api.spotify.com/v1/playlists/522eoPWDEPbY9neoxWzqM1", "id": "522eoPWDEPbY9neoxWzqM1", "images": [{"height": 640, "url": "https://mosaic.scdn.co/640/ab67616d0000b273072e9faef2ef7b6db63834a3ab67616d0000b2730cd942c1a864afa4e92d04f2ab67616d0000b27346db517d3fba2766afdf26a4ab67616d0000b27355cad990bc1ce5808367fa0e", "width": 640}, {"height": 300, "url": "https://mosaic.scdn.co/300/ab67616d0000b273072e9faef2ef7b6db63834a3ab67616d0000b2730cd942c1a864afa4e92d04f2ab67616d0000b27346db517d3fba2766afdf26a4ab67616d0000b27355cad990bc1ce5808367fa0e", "width": 300}, {"height": 60, "url": "https://mosaic.scdn.co/60/ab67616d0000b273072e9faef2ef7b6db63834a3ab67616d0000b2730cd942c1a864afa4e92d04f2ab67616d0000b27346db517d3fba2766afdf26a4ab67616d0000b27355cad990bc1ce5808367fa0e", "width": 60}], "name": "Senior Year", "owner": {"display_name": "Joshua Reid", "external_urls": {"spotify": "https://open.spotify.com/user/kingboomie"}, "href": "https://api.spotify.com/v1/users/kingboomie", "id": "kingboomie", "type": "user", "uri": "spotify:user:kingboomie"}, "primary_color": null, "public": true, "snapshot_id": "MTgzLGI2YTBmMDg5YmJiNzE3ZjQ5OTkyNjZlOTc1M2MwMmJkNDYzYjExN2Y=", "tracks": {"href": "https://api.spotify.com/v1/playlists/522eoPWDEPbY9neoxWzqM1/tracks", "total": 78}, "type": "playlist", "uri": "spotify:playlist:522eoPWDEPbY9neoxWzqM1"}, {"collaborative": false, "description": "", "external_urls": {"spotify": "https://open.spotify.com/playlist/4Lwb4rBhkhzgwyaPEKCdhE"}, "href": "https://api.spotify.com/v1/playlists/4Lwb4rBhkhzgwyaPEKCdhE", "id": "4Lwb4rBhkhzgwyaPEKCdhE", "images": [{"height": null, "url": "https://i.scdn.co/image/ab67706c0000bebb64fb331a0c9bd21f3f33d45a", "width": null}], "name": "Junior Year", "owner": {"display_name": "Joshua Reid", "external_urls": {"spotify": "https://open.spotify.com/user/kingboomie"}, "href": "https://api.spotify.com/v1/users/kingboomie", "id": "kingboomie", "type": "user", "uri": "spotify:user:kingboomie"}, "primary_color": null, "public": true, "snapshot_id": "MjM3LDczYzU3MzYxMjZjMmI0YWQ3ZmQ3Yjk1MmZhNjdlNTg0YjQ5OTg5NTc=", "tracks": {"href": "https://api.spotify.com/v1/playlists/4Lwb4rBhkhzgwyaPEKCdhE/tracks", "total": 164}, "type": "playlist", "uri": "spotify:playlist:4Lwb4rBhkhzgwyaPEKCdhE"}], "limit": 20, "next": "https://api.spotify.com/v1/users/kingboomie/playlists?offset=20&limit=20", "offset": 0, "previous": null, "total": 30}